simple_bus_MMMS_with_SSP/simple_bus_MMMS_with_SSP.sim/sim_1/behav/xsim/simulate.log
Time resolution is 1 ps
Time: 0 | Master Din: 00 | Addr: 00000000000000 | Write Enable: 0 | Slave1 Select: 0 | Slave2 Select: 0 | Slave3 Select: 0
Time: 35000 | Master Din: 00 | Addr: 01000000000010 | Write Enable: 0 | Slave1 Select: 0 | Slave2 Select: 0 | Slave3 Select: 0
Time: 55000 | Master Din: xx | Addr: 01000000000010 | Write Enable: 0 | Slave1 Select: 0 | Slave2 Select: 1 | Slave3 Select: 0
Time: 65000 | Master Din: 00 | Addr: 01000000000010 | Write Enable: 0 | Slave1 Select: 0 | Slave2 Select: 1 | Slave3 Select: 0
Time: 75000 | Master Din: 00 | Addr: 01000000000010 | Write Enable: 0 | Slave1 Select: 0 | Slave2 Select: 0 | Slave3 Select: 0
Time: 105000 | Master Din: 00 | Addr: 01000000000001 | Write Enable: 1 | Slave1 Select: 0 | Slave2 Select: 0 | Slave3 Select: 0
Time: 125000 | Master Din: 00 | Addr: 01000000000001 | Write Enable: 1 | Slave1 Select: 0 | Slave2 Select: 1 | Slave3 Select: 0
Time: 145000 | Master Din: 00 | Addr: 01000000000001 | Write Enable: 0 | Slave1 Select: 0 | Slave2 Select: 0 | Slave3 Select: 0
Time: 175000 | Master Din: 00 | Addr: 00000000000000 | Write Enable: 0 | Slave1 Select: 0 | Slave2 Select: 0 | Slave3 Select: 0
Time: 195000 | Master Din: 00 | Addr: 00000000000000 | Write Enable: 0 | Slave1 Select: 1 | Slave2 Select: 0 | Slave3 Select: 0
Time: 215000 | Master Din: 00 | Addr: 00000000000000 | Write Enable: 0 | Slave1 Select: 0 | Slave2 Select: 0 | Slave3 Select: 0
Time: 365000 | Master Din: 00 | Addr: 00000000000000 | Write Enable: 0 | Slave1 Select: 1 | Slave2 Select: 0 | Slave3 Select: 0
Time: 375000 | Master Din: a5 | Addr: 00000000000000 | Write Enable: 0 | Slave1 Select: 1 | Slave2 Select: 0 | Slave3 Select: 0
Time: 385000 | Master Din: 00 | Addr: 00000000000000 | Write Enable: 0 | Slave1 Select: 0 | Slave2 Select: 0 | Slave3 Select: 0
Time: 415000 | Master Din: 00 | Addr: 00000000000001 | Write Enable: 1 | Slave1 Select: 0 | Slave2 Select: 0 | Slave3 Select: 0
Time: 435000 | Master Din: a5 | Addr: 00000000000001 | Write Enable: 1 | Slave1 Select: 1 | Slave2 Select: 0 | Slave3 Select: 0
Time: 455000 | Master Din: 00 | Addr: 00000000000001 | Write Enable: 1 | Slave1 Select: 0 | Slave2 Select: 0 | Slave3 Select: 0
Time: 555000 | Master Din: a5 | Addr: 00000000000001 | Write Enable: 1 | Slave1 Select: 1 | Slave2 Select: 0 | Slave3 Select: 0
Time: 575000 | Master Din: 00 | Addr: 00000000000001 | Write Enable: 0 | Slave1 Select: 0 | Slave2 Select: 0 | Slave3 Select: 0
Time: 605000 | Master Din: 00 | Addr: 10000000000000 | Write Enable: 0 | Slave1 Select: 0 | Slave2 Select: 0 | Slave3 Select: 0
Time: 625000 | Master Din: xx | Addr: 10000000000000 | Write Enable: 0 | Slave1 Select: 0 | Slave2 Select: 0 | Slave3 Select: 1
Time: 635000 | Master Din: a5 | Addr: 10000000000000 | Write Enable: 0 | Slave1 Select: 0 | Slave2 Select: 0 | Slave3 Select: 1
Time: 645000 | Master Din: 00 | Addr: 10000000000000 | Write Enable: 0 | Slave1 Select: 0 | Slave2 Select: 0 | Slave3 Select: 0
$finish called at time : 655 ns : File "C:/Users/Hansa Niluka/OneDrive - University of Moratuwa/semster 07/4.EN4021 - Advanced Digital Systems/Bus-Desingn/simple_bus_MMMS_with_SSP/simple_bus_MMMS_with_SSP.srcs/sources_1/new/tb_simple_bus_MMMS_SSS.v" Line 233
Time: 675000 | Master Din: 00 | Addr: 10000000000001 | Write Enable: 1 | Slave1 Select: 0 | Slave2 Select: 0 | Slave3 Select: 0
Time: 695000 | Master Din: a5 | Addr: 10000000000001 | Write Enable: 1 | Slave1 Select: 0 | Slave2 Select: 0 | Slave3 Select: 1
Time: 715000 | Master Din: 00 | Addr: 10000000000001 | Write Enable: 0 | Slave1 Select: 0 | Slave2 Select: 0 | Slave3 Select: 0
Time: 805000 | Master Din: 00 | Addr: 01000000000010 | Write Enable: 0 | Slave1 Select: 0 | Slave2 Select: 0 | Slave3 Select: 0
Time: 825000 | Master Din: 00 | Addr: 01000000000010 | Write Enable: 0 | Slave1 Select: 0 | Slave2 Select: 1 | Slave3 Select: 0
Time: 845000 | Master Din: 00 | Addr: 01000000000010 | Write Enable: 0 | Slave1 Select: 0 | Slave2 Select: 0 | Slave3 Select: 0
Time: 875000 | Master Din: 00 | Addr: 01000000000001 | Write Enable: 1 | Slave1 Select: 0 | Slave2 Select: 0 | Slave3 Select: 0
Time: 895000 | Master Din: 00 | Addr: 01000000000001 | Write Enable: 1 | Slave1 Select: 0 | Slave2 Select: 1 | Slave3 Select: 0
Time: 915000 | Master Din: 00 | Addr: 01000000000001 | Write Enable: 0 | Slave1 Select: 0 | Slave2 Select: 0 | Slave3 Select: 0
Time: 945000 | Master Din: 00 | Addr: 00000000000000 | Write Enable: 0 | Slave1 Select: 0 | Slave2 Select: 0 | Slave3 Select: 0
Time: 965000 | Master Din: a5 | Addr: 00000000000000 | Write Enable: 0 | Slave1 Select: 1 | Slave2 Select: 0 | Slave3 Select: 0
Time: 985000 | Master Din: 00 | Addr: 00000000000000 | Write Enable: 0 | Slave1 Select: 0 | Slave2 Select: 0 | Slave3 Select: 0
Time: 1015000 | Master Din: 00 | Addr: 00000000000001 | Write Enable: 1 | Slave1 Select: 0 | Slave2 Select: 0 | Slave3 Select: 0
Time: 1035000 | Master Din: a5 | Addr: 00000000000001 | Write Enable: 1 | Slave1 Select: 1 | Slave2 Select: 0 | Slave3 Select: 0
Time: 1055000 | Master Din: 00 | Addr: 00000000000001 | Write Enable: 1 | Slave1 Select: 0 | Slave2 Select: 0 | Slave3 Select: 0
Time: 1155000 | Master Din: a5 | Addr: 00000000000001 | Write Enable: 1 | Slave1 Select: 1 | Slave2 Select: 0 | Slave3 Select: 0
Time: 1175000 | Master Din: 00 | Addr: 00000000000001 | Write Enable: 0 | Slave1 Select: 0 | Slave2 Select: 0 | Slave3 Select: 0
Time: 1205000 | Master Din: 00 | Addr: 10000000000000 | Write Enable: 0 | Slave1 Select: 0 | Slave2 Select: 0 | Slave3 Select: 0
Time: 1225000 | Master Din: a5 | Addr: 10000000000000 | Write Enable: 0 | Slave1 Select: 0 | Slave2 Select: 0 | Slave3 Select: 1
Time: 1245000 | Master Din: 00 | Addr: 10000000000000 | Write Enable: 0 | Slave1 Select: 0 | Slave2 Select: 0 | Slave3 Select: 0
Time: 1275000 | Master Din: 00 | Addr: 10000000000001 | Write Enable: 1 | Slave1 Select: 0 | Slave2 Select: 0 | Slave3 Select: 0
Time: 1295000 | Master Din: a5 | Addr: 10000000000001 | Write Enable: 1 | Slave1 Select: 0 | Slave2 Select: 0 | Slave3 Select: 1
Time: 1315000 | Master Din: 00 | Addr: 10000000000001 | Write Enable: 0 | Slave1 Select: 0 | Slave2 Select: 0 | Slave3 Select: 0
Time: 1405000 | Master Din: 00 | Addr: 01000000000010 | Write Enable: 0 | Slave1 Select: 0 | Slave2 Select: 0 | Slave3 Select: 0
Time: 1425000 | Master Din: 00 | Addr: 01000000000010 | Write Enable: 0 | Slave1 Select: 0 | Slave2 Select: 1 | Slave3 Select: 0
Time: 1445000 | Master Din: 00 | Addr: 01000000000010 | Write Enable: 0 | Slave1 Select: 0 | Slave2 Select: 0 | Slave3 Select: 0
Time: 1475000 | Master Din: 00 | Addr: 01000000000001 | Write Enable: 1 | Slave1 Select: 0 | Slave2 Select: 0 | Slave3 Select: 0
Time: 1495000 | Master Din: 00 | Addr: 01000000000001 | Write Enable: 1 | Slave1 Select: 0 | Slave2 Select: 1 | Slave3 Select: 0
Time: 1515000 | Master Din: 00 | Addr: 01000000000001 | Write Enable: 0 | Slave1 Select: 0 | Slave2 Select: 0 | Slave3 Select: 0
Time: 1545000 | Master Din: 00 | Addr: 00000000000000 | Write Enable: 0 | Slave1 Select: 0 | Slave2 Select: 0 | Slave3 Select: 0
Time: 1565000 | Master Din: a5 | Addr: 00000000000000 | Write Enable: 0 | Slave1 Select: 1 | Slave2 Select: 0 | Slave3 Select: 0
Time: 1585000 | Master Din: 00 | Addr: 00000000000000 | Write Enable: 0 | Slave1 Select: 0 | Slave2 Select: 0 | Slave3 Select: 0
Time: 1615000 | Master Din: 00 | Addr: 00000000000001 | Write Enable: 1 | Slave1 Select: 0 | Slave2 Select: 0 | Slave3 Select: 0
Time: 1635000 | Master Din: a5 | Addr: 00000000000001 | Write Enable: 1 | Slave1 Select: 1 | Slave2 Select: 0 | Slave3 Select: 0
Time: 1655000 | Master Din: 00 | Addr: 00000000000001 | Write Enable: 1 | Slave1 Select: 0 | Slave2 Select: 0 | Slave3 Select: 0
Time: 1755000 | Master Din: a5 | Addr: 00000000000001 | Write Enable: 1 | Slave1 Select: 1 | Slave2 Select: 0 | Slave3 Select: 0
Time: 1775000 | Master Din: 00 | Addr: 00000000000001 | Write Enable: 0 | Slave1 Select: 0 | Slave2 Select: 0 | Slave3 Select: 0
Time: 1805000 | Master Din: 00 | Addr: 10000000000000 | Write Enable: 0 | Slave1 Select: 0 | Slave2 Select: 0 | Slave3 Select: 0
Time: 1825000 | Master Din: a5 | Addr: 10000000000000 | Write Enable: 0 | Slave1 Select: 0 | Slave2 Select: 0 | Slave3 Select: 1
Time: 1845000 | Master Din: 00 | Addr: 10000000000000 | Write Enable: 0 | Slave1 Select: 0 | Slave2 Select: 0 | Slave3 Select: 0
Time: 1875000 | Master Din: 00 | Addr: 10000000000001 | Write Enable: 1 | Slave1 Select: 0 | Slave2 Select: 0 | Slave3 Select: 0
Time: 1895000 | Master Din: a5 | Addr: 10000000000001 | Write Enable: 1 | Slave1 Select: 0 | Slave2 Select: 0 | Slave3 Select: 1
Time: 1915000 | Master Din: 00 | Addr: 10000000000001 | Write Enable: 0 | Slave1 Select: 0 | Slave2 Select: 0 | Slave3 Select: 0
Time: 2005000 | Master Din: 00 | Addr: 01000000000010 | Write Enable: 0 | Slave1 Select: 0 | Slave2 Select: 0 | Slave3 Select: 0
Time: 2025000 | Master Din: 00 | Addr: 01000000000010 | Write Enable: 0 | Slave1 Select: 0 | Slave2 Select: 1 | Slave3 Select: 0
Time: 2045000 | Master Din: 00 | Addr: 01000000000010 | Write Enable: 0 | Slave1 Select: 0 | Slave2 Select: 0 | Slave3 Select: 0
Time: 2075000 | Master Din: 00 | Addr: 01000000000001 | Write Enable: 1 | Slave1 Select: 0 | Slave2 Select: 0 | Slave3 Select: 0
Time: 2095000 | Master Din: 00 | Addr: 01000000000001 | Write Enable: 1 | Slave1 Select: 0 | Slave2 Select: 1 | Slave3 Select: 0
Time: 2115000 | Master Din: 00 | Addr: 01000000000001 | Write Enable: 0 | Slave1 Select: 0 | Slave2 Select: 0 | Slave3 Select: 0
Time: 2145000 | Master Din: 00 | Addr: 00000000000000 | Write Enable: 0 | Slave1 Select: 0 | Slave2 Select: 0 | Slave3 Select: 0
Time: 2165000 | Master Din: a5 | Addr: 00000000000000 | Write Enable: 0 | Slave1 Select: 1 | Slave2 Select: 0 | Slave3 Select: 0
Time: 2185000 | Master Din: 00 | Addr: 00000000000000 | Write Enable: 0 | Slave1 Select: 0 | Slave2 Select: 0 | Slave3 Select: 0
Time: 2215000 | Master Din: 00 | Addr: 00000000000001 | Write Enable: 1 | Slave1 Select: 0 | Slave2 Select: 0 | Slave3 Select: 0
Time: 2235000 | Master Din: a5 | Addr: 00000000000001 | Write Enable: 1 | Slave1 Select: 1 | Slave2 Select: 0 | Slave3 Select: 0
Time: 2255000 | Master Din: 00 | Addr: 00000000000001 | Write Enable: 1 | Slave1 Select: 0 | Slave2 Select: 0 | Slave3 Select: 0
Time: 2355000 | Master Din: a5 | Addr: 00000000000001 | Write Enable: 1 | Slave1 Select: 1 | Slave2 Select: 0 | Slave3 Select: 0
Time: 2375000 | Master Din: 00 | Addr: 00000000000001 | Write Enable: 0 | Slave1 Select: 0 | Slave2 Select: 0 | Slave3 Select: 0
Time: 2405000 | Master Din: 00 | Addr: 10000000000000 | Write Enable: 0 | Slave1 Select: 0 | Slave2 Select: 0 | Slave3 Select: 0
Time: 2425000 | Master Din: a5 | Addr: 10000000000000 | Write Enable: 0 | Slave1 Select: 0 | Slave2 Select: 0 | Slave3 Select: 1
Time: 2445000 | Master Din: 00 | Addr: 10000000000000 | Write Enable: 0 | Slave1 Select: 0 | Slave2 Select: 0 | Slave3 Select: 0
Time: 2475000 | Master Din: 00 | Addr: 10000000000001 | Write Enable: 1 | Slave1 Select: 0 | Slave2 Select: 0 | Slave3 Select: 0
Time: 2495000 | Master Din: a5 | Addr: 10000000000001 | Write Enable: 1 | Slave1 Select: 0 | Slave2 Select: 0 | Slave3 Select: 1
Time: 2515000 | Master Din: 00 | Addr: 10000000000001 | Write Enable: 0 | Slave1 Select: 0 | Slave2 Select: 0 | Slave3 Select: 0
Time: 2605000 | Master Din: 00 | Addr: 01000000000010 | Write Enable: 0 | Slave1 Select: 0 | Slave2 Select: 0 | Slave3 Select: 0
Time: 2625000 | Master Din: 00 | Addr: 01000000000010 | Write Enable: 0 | Slave1 Select: 0 | Slave2 Select: 1 | Slave3 Select: 0
Time: 2645000 | Master Din: 00 | Addr: 01000000000010 | Write Enable: 0 | Slave1 Select: 0 | Slave2 Select: 0 | Slave3 Select: 0
Time: 2675000 | Master Din: 00 | Addr: 01000000000001 | Write Enable: 1 | Slave1 Select: 0 | Slave2 Select: 0 | Slave3 Select: 0
Time: 2695000 | Master Din: 00 | Addr: 01000000000001 | Write Enable: 1 | Slave1 Select: 0 | Slave2 Select: 1 | Slave3 Select: 0
Time: 2715000 | Master Din: 00 | Addr: 01000000000001 | Write Enable: 0 | Slave1 Select: 0 | Slave2 Select: 0 | Slave3 Select: 0
Time: 2745000 | Master Din: 00 | Addr: 00000000000000 | Write Enable: 0 | Slave1 Select: 0 | Slave2 Select: 0 | Slave3 Select: 0
Time: 2765000 | Master Din: a5 | Addr: 00000000000000 | Write Enable: 0 | Slave1 Select: 1 | Slave2 Select: 0 | Slave3 Select: 0
Time: 2785000 | Master Din: 00 | Addr: 00000000000000 | Write Enable: 0 | Slave1 Select: 0 | Slave2 Select: 0 | Slave3 Select: 0
Time: 2815000 | Master Din: 00 | Addr: 00000000000001 | Write Enable: 1 | Slave1 Select: 0 | Slave2 Select: 0 | Slave3 Select: 0
Time: 2835000 | Master Din: a5 | Addr: 00000000000001 | Write Enable: 1 | Slave1 Select: 1 | Slave2 Select: 0 | Slave3 Select: 0
Time: 2855000 | Master Din: 00 | Addr: 00000000000001 | Write Enable: 1 | Slave1 Select: 0 | Slave2 Select: 0 | Slave3 Select: 0
Time: 2955000 | Master Din: a5 | Addr: 00000000000001 | Write Enable: 1 | Slave1 Select: 1 | Slave2 Select: 0 | Slave3 Select: 0
Time: 2975000 | Master Din: 00 | Addr: 00000000000001 | Write Enable: 0 | Slave1 Select: 0 | Slave2 Select: 0 | Slave3 Select: 0
Time: 3005000 | Master Din: 00 | Addr: 10000000000000 | Write Enable: 0 | Slave1 Select: 0 | Slave2 Select: 0 | Slave3 Select: 0
Time: 3025000 | Master Din: a5 | Addr: 10000000000000 | Write Enable: 0 | Slave1 Select: 0 | Slave2 Select: 0 | Slave3 Select: 1
Time: 3045000 | Master Din: 00 | Addr: 10000000000000 | Write Enable: 0 | Slave1 Select: 0 | Slave2 Select: 0 | Slave3 Select: 0
Time: 3075000 | Master Din: 00 | Addr: 10000000000001 | Write Enable: 1 | Slave1 Select: 0 | Slave2 Select: 0 | Slave3 Select: 0
Time: 3095000 | Master Din: a5 | Addr: 10000000000001 | Write Enable: 1 | Slave1 Select: 0 | Slave2 Select: 0 | Slave3 Select: 1
Time: 3115000 | Master Din: 00 | Addr: 10000000000001 | Write Enable: 0 | Slave1 Select: 0 | Slave2 Select: 0 | Slave3 Select: 0
Time: 3205000 | Master Din: 00 | Addr: 01000000000010 | Write Enable: 0 | Slave1 Select: 0 | Slave2 Select: 0 | Slave3 Select: 0
Time: 3225000 | Master Din: 00 | Addr: 01000000000010 | Write Enable: 0 | Slave1 Select: 0 | Slave2 Select: 1 | Slave3 Select: 0
Time: 3245000 | Master Din: 00 | Addr: 01000000000010 | Write Enable: 0 | Slave1 Select: 0 | Slave2 Select: 0 | Slave3 Select: 0
Time: 3275000 | Master Din: 00 | Addr: 01000000000001 | Write Enable: 1 | Slave1 Select: 0 | Slave2 Select: 0 | Slave3 Select: 0
Time: 3295000 | Master Din: 00 | Addr: 01000000000001 | Write Enable: 1 | Slave1 Select: 0 | Slave2 Select: 1 | Slave3 Select: 0
Time: 3315000 | Master Din: 00 | Addr: 01000000000001 | Write Enable: 0 | Slave1 Select: 0 | Slave2 Select: 0 | Slave3 Select: 0
Time: 3345000 | Master Din: 00 | Addr: 00000000000000 | Write Enable: 0 | Slave1 Select: 0 | Slave2 Select: 0 | Slave3 Select: 0
Time: 3365000 | Master Din: a5 | Addr: 00000000000000 | Write Enable: 0 | Slave1 Select: 1 | Slave2 Select: 0 | Slave3 Select: 0
Time: 3385000 | Master Din: 00 | Addr: 00000000000000 | Write Enable: 0 | Slave1 Select: 0 | Slave2 Select: 0 | Slave3 Select: 0
Time: 3415000 | Master Din: 00 | Addr: 00000000000001 | Write Enable: 1 | Slave1 Select: 0 | Slave2 Select: 0 | Slave3 Select: 0
Time: 3435000 | Master Din: a5 | Addr: 00000000000001 | Write Enable: 1 | Slave1 Select: 1 | Slave2 Select: 0 | Slave3 Select: 0
Time: 3455000 | Master Din: 00 | Addr: 00000000000001 | Write Enable: 1 | Slave1 Select: 0 | Slave2 Select: 0 | Slave3 Select: 0
Time: 3555000 | Master Din: a5 | Addr: 00000000000001 | Write Enable: 1 | Slave1 Select: 1 | Slave2 Select: 0 | Slave3 Select: 0
Time: 3575000 | Master Din: 00 | Addr: 00000000000001 | Write Enable: 0 | Slave1 Select: 0 | Slave2 Select: 0 | Slave3 Select: 0
Time: 3605000 | Master Din: 00 | Addr: 10000000000000 | Write Enable: 0 | Slave1 Select: 0 | Slave2 Select: 0 | Slave3 Select: 0
Time: 3625000 | Master Din: a5 | Addr: 10000000000000 | Write Enable: 0 | Slave1 Select: 0 | Slave2 Select: 0 | Slave3 Select: 1
Time: 3645000 | Master Din: 00 | Addr: 10000000000000 | Write Enable: 0 | Slave1 Select: 0 | Slave2 Select: 0 | Slave3 Select: 0
Time: 3675000 | Master Din: 00 | Addr: 10000000000001 | Write Enable: 1 | Slave1 Select: 0 | Slave2 Select: 0 | Slave3 Select: 0
Time: 3695000 | Master Din: a5 | Addr: 10000000000001 | Write Enable: 1 | Slave1 Select: 0 | Slave2 Select: 0 | Slave3 Select: 1
Time: 3715000 | Master Din: 00 | Addr: 10000000000001 | Write Enable: 0 | Slave1 Select: 0 | Slave2 Select: 0 | Slave3 Select: 0
Time: 3805000 | Master Din: 00 | Addr: 01000000000010 | Write Enable: 0 | Slave1 Select: 0 | Slave2 Select: 0 | Slave3 Select: 0
Time: 3825000 | Master Din: 00 | Addr: 01000000000010 | Write Enable: 0 | Slave1 Select: 0 | Slave2 Select: 1 | Slave3 Select: 0
Time: 3845000 | Master Din: 00 | Addr: 01000000000010 | Write Enable: 0 | Slave1 Select: 0 | Slave2 Select: 0 | Slave3 Select: 0
Time: 3875000 | Master Din: 00 | Addr: 01000000000001 | Write Enable: 1 | Slave1 Select: 0 | Slave2 Select: 0 | Slave3 Select: 0
Time: 3895000 | Master Din: 00 | Addr: 01000000000001 | Write Enable: 1 | Slave1 Select: 0 | Slave2 Select: 1 | Slave3 Select: 0
Time: 3915000 | Master Din: 00 | Addr: 01000000000001 | Write Enable: 0 | Slave1 Select: 0 | Slave2 Select: 0 | Slave3 Select: 0
Time: 3945000 | Master Din: 00 | Addr: 00000000000000 | Write Enable: 0 | Slave1 Select: 0 | Slave2 Select: 0 | Slave3 Select: 0
Time: 3965000 | Master Din: a5 | Addr: 00000000000000 | Write Enable: 0 | Slave1 Select: 1 | Slave2 Select: 0 | Slave3 Select: 0
Time: 3985000 | Master Din: 00 | Addr: 00000000000000 | Write Enable: 0 | Slave1 Select: 0 | Slave2 Select: 0 | Slave3 Select: 0
Time: 4015000 | Master Din: 00 | Addr: 00000000000001 | Write Enable: 1 | Slave1 Select: 0 | Slave2 Select: 0 | Slave3 Select: 0
Time: 4035000 | Master Din: a5 | Addr: 00000000000001 | Write Enable: 1 | Slave1 Select: 1 | Slave2 Select: 0 | Slave3 Select: 0
Time: 4055000 | Master Din: 00 | Addr: 00000000000001 | Write Enable: 1 | Slave1 Select: 0 | Slave2 Select: 0 | Slave3 Select: 0
Time: 4155000 | Master Din: a5 | Addr: 00000000000001 | Write Enable: 1 | Slave1 Select: 1 | Slave2 Select: 0 | Slave3 Select: 0
Time: 4175000 | Master Din: 00 | Addr: 00000000000001 | Write Enable: 0 | Slave1 Select: 0 | Slave2 Select: 0 | Slave3 Select: 0
Time: 4205000 | Master Din: 00 | Addr: 10000000000000 | Write Enable: 0 | Slave1 Select: 0 | Slave2 Select: 0 | Slave3 Select: 0
Time: 4225000 | Master Din: a5 | Addr: 10000000000000 | Write Enable: 0 | Slave1 Select: 0 | Slave2 Select: 0 | Slave3 Select: 1
Time: 4245000 | Master Din: 00 | Addr: 10000000000000 | Write Enable: 0 | Slave1 Select: 0 | Slave2 Select: 0 | Slave3 Select: 0
Time: 4275000 | Master Din: 00 | Addr: 10000000000001 | Write Enable: 1 | Slave1 Select: 0 | Slave2 Select: 0 | Slave3 Select: 0
Time: 4295000 | Master Din: a5 | Addr: 10000000000001 | Write Enable: 1 | Slave1 Select: 0 | Slave2 Select: 0 | Slave3 Select: 1
Time: 4315000 | Master Din: 00 | Addr: 10000000000001 | Write Enable: 0 | Slave1 Select: 0 | Slave2 Select: 0 | Slave3 Select: 0
Time: 4405000 | Master Din: 00 | Addr: 01000000000010 | Write Enable: 0 | Slave1 Select: 0 | Slave2 Select: 0 | Slave3 Select: 0
Time: 4425000 | Master Din: 00 | Addr: 01000000000010 | Write Enable: 0 | Slave1 Select: 0 | Slave2 Select: 1 | Slave3 Select: 0
Time: 4445000 | Master Din: 00 | Addr: 01000000000010 | Write Enable: 0 | Slave1 Select: 0 | Slave2 Select: 0 | Slave3 Select: 0
Time: 4475000 | Master Din: 00 | Addr: 01000000000001 | Write Enable: 1 | Slave1 Select: 0 | Slave2 Select: 0 | Slave3 Select: 0
Time: 4495000 | Master Din: 00 | Addr: 01000000000001 | Write Enable: 1 | Slave1 Select: 0 | Slave2 Select: 1 | Slave3 Select: 0
Time: 4515000 | Master Din: 00 | Addr: 01000000000001 | Write Enable: 0 | Slave1 Select: 0 | Slave2 Select: 0 | Slave3 Select: 0
Time: 4545000 | Master Din: 00 | Addr: 00000000000000 | Write Enable: 0 | Slave1 Select: 0 | Slave2 Select: 0 | Slave3 Select: 0
Time: 4565000 | Master Din: a5 | Addr: 00000000000000 | Write Enable: 0 | Slave1 Select: 1 | Slave2 Select: 0 | Slave3 Select: 0
Time: 4585000 | Master Din: 00 | Addr: 00000000000000 | Write Enable: 0 | Slave1 Select: 0 | Slave2 Select: 0 | Slave3 Select: 0
Time: 4615000 | Master Din: 00 | Addr: 00000000000001 | Write Enable: 1 | Slave1 Select: 0 | Slave2 Select: 0 | Slave3 Select: 0
Time: 4635000 | Master Din: a5 | Addr: 00000000000001 | Write Enable: 1 | Slave1 Select: 1 | Slave2 Select: 0 | Slave3 Select: 0
Time: 4655000 | Master Din: 00 | Addr: 00000000000001 | Write Enable: 1 | Slave1 Select: 0 | Slave2 Select: 0 | Slave3 Select: 0
Time: 4755000 | Master Din: a5 | Addr: 00000000000001 | Write Enable: 1 | Slave1 Select: 1 | Slave2 Select: 0 | Slave3 Select: 0
Time: 4775000 | Master Din: 00 | Addr: 00000000000001 | Write Enable: 0 | Slave1 Select: 0 | Slave2 Select: 0 | Slave3 Select: 0
Time: 4805000 | Master Din: 00 | Addr: 10000000000000 | Write Enable: 0 | Slave1 Select: 0 | Slave2 Select: 0 | Slave3 Select: 0
Time: 4825000 | Master Din: a5 | Addr: 10000000000000 | Write Enable: 0 | Slave1 Select: 0 | Slave2 Select: 0 | Slave3 Select: 1
Time: 4845000 | Master Din: 00 | Addr: 10000000000000 | Write Enable: 0 | Slave1 Select: 0 | Slave2 Select: 0 | Slave3 Select: 0
Time: 4875000 | Master Din: 00 | Addr: 10000000000001 | Write Enable: 1 | Slave1 Select: 0 | Slave2 Select: 0 | Slave3 Select: 0
Time: 4895000 | Master Din: a5 | Addr: 10000000000001 | Write Enable: 1 | Slave1 Select: 0 | Slave2 Select: 0 | Slave3 Select: 1
Time: 4915000 | Master Din: 00 | Addr: 10000000000001 | Write Enable: 0 | Slave1 Select: 0 | Slave2 Select: 0 | Slave3 Select: 0
Time: 5005000 | Master Din: 00 | Addr: 01000000000010 | Write Enable: 0 | Slave1 Select: 0 | Slave2 Select: 0 | Slave3 Select: 0
Time: 5025000 | Master Din: 00 | Addr: 01000000000010 | Write Enable: 0 | Slave1 Select: 0 | Slave2 Select: 1 | Slave3 Select: 0
Time: 5045000 | Master Din: 00 | Addr: 01000000000010 | Write Enable: 0 | Slave1 Select: 0 | Slave2 Select: 0 | Slave3 Select: 0
Time: 5075000 | Master Din: 00 | Addr: 01000000000001 | Write Enable: 1 | Slave1 Select: 0 | Slave2 Select: 0 | Slave3 Select: 0
Time: 5095000 | Master Din: 00 | Addr: 01000000000001 | Write Enable: 1 | Slave1 Select: 0 | Slave2 Select: 1 | Slave3 Select: 0
Time: 5115000 | Master Din: 00 | Addr: 01000000000001 | Write Enable: 0 | Slave1 Select: 0 | Slave2 Select: 0 | Slave3 Select: 0
Time: 5145000 | Master Din: 00 | Addr: 00000000000000 | Write Enable: 0 | Slave1 Select: 0 | Slave2 Select: 0 | Slave3 Select: 0
Time: 5165000 | Master Din: a5 | Addr: 00000000000000 | Write Enable: 0 | Slave1 Select: 1 | Slave2 Select: 0 | Slave3 Select: 0
Time: 5185000 | Master Din: 00 | Addr: 00000000000000 | Write Enable: 0 | Slave1 Select: 0 | Slave2 Select: 0 | Slave3 Select: 0
Time: 5215000 | Master Din: 00 | Addr: 00000000000001 | Write Enable: 1 | Slave1 Select: 0 | Slave2 Select: 0 | Slave3 Select: 0
Time: 5235000 | Master Din: a5 | Addr: 00000000000001 | Write Enable: 1 | Slave1 Select: 1 | Slave2 Select: 0 | Slave3 Select: 0
Time: 5255000 | Master Din: 00 | Addr: 00000000000001 | Write Enable: 1 | Slave1 Select: 0 | Slave2 Select: 0 | Slave3 Select: 0
Time: 5355000 | Master Din: a5 | Addr: 00000000000001 | Write Enable: 1 | Slave1 Select: 1 | Slave2 Select: 0 | Slave3 Select: 0
Time: 5375000 | Master Din: 00 | Addr: 00000000000001 | Write Enable: 0 | Slave1 Select: 0 | Slave2 Select: 0 | Slave3 Select: 0
Time: 5405000 | Master Din: 00 | Addr: 10000000000000 | Write Enable: 0 | Slave1 Select: 0 | Slave2 Select: 0 | Slave3 Select: 0
Time: 5425000 | Master Din: a5 | Addr: 10000000000000 | Write Enable: 0 | Slave1 Select: 0 | Slave2 Select: 0 | Slave3 Select: 1
Time: 5445000 | Master Din: 00 | Addr: 10000000000000 | Write Enable: 0 | Slave1 Select: 0 | Slave2 Select: 0 | Slave3 Select: 0
Time: 5475000 | Master Din: 00 | Addr: 10000000000001 | Write Enable: 1 | Slave1 Select: 0 | Slave2 Select: 0 | Slave3 Select: 0
Time: 5495000 | Master Din: a5 | Addr: 10000000000001 | Write Enable: 1 | Slave1 Select: 0 | Slave2 Select: 0 | Slave3 Select: 1
Time: 5515000 | Master Din: 00 | Addr: 10000000000001 | Write Enable: 0 | Slave1 Select: 0 | Slave2 Select: 0 | Slave3 Select: 0
Time: 5605000 | Master Din: 00 | Addr: 01000000000010 | Write Enable: 0 | Slave1 Select: 0 | Slave2 Select: 0 | Slave3 Select: 0
Time: 5625000 | Master Din: 00 | Addr: 01000000000010 | Write Enable: 0 | Slave1 Select: 0 | Slave2 Select: 1 | Slave3 Select: 0
Time: 5645000 | Master Din: 00 | Addr: 01000000000010 | Write Enable: 0 | Slave1 Select: 0 | Slave2 Select: 0 | Slave3 Select: 0
Time: 5675000 | Master Din: 00 | Addr: 01000000000001 | Write Enable: 1 | Slave1 Select: 0 | Slave2 Select: 0 | Slave3 Select: 0
Time: 5695000 | Master Din: 00 | Addr: 01000000000001 | Write Enable: 1 | Slave1 Select: 0 | Slave2 Select: 1 | Slave3 Select: 0
Time: 5715000 | Master Din: 00 | Addr: 01000000000001 | Write Enable: 0 | Slave1 Select: 0 | Slave2 Select: 0 | Slave3 Select: 0
Time: 5745000 | Master Din: 00 | Addr: 00000000000000 | Write Enable: 0 | Slave1 Select: 0 | Slave2 Select: 0 | Slave3 Select: 0
Time: 5765000 | Master Din: a5 | Addr: 00000000000000 | Write Enable: 0 | Slave1 Select: 1 | Slave2 Select: 0 | Slave3 Select: 0
Time: 5785000 | Master Din: 00 | Addr: 00000000000000 | Write Enable: 0 | Slave1 Select: 0 | Slave2 Select: 0 | Slave3 Select: 0
Time: 5815000 | Master Din: 00 | Addr: 00000000000001 | Write Enable: 1 | Slave1 Select: 0 | Slave2 Select: 0 | Slave3 Select: 0
Time: 5835000 | Master Din: a5 | Addr: 00000000000001 | Write Enable: 1 | Slave1 Select: 1 | Slave2 Select: 0 | Slave3 Select: 0
